Chapter 6 Introduction to dplyr | R4ews MA009
…
Also load gapminder.

library(gapminder)

6.1.2 Say hello to the gapminder tibble

The gapminder data frame is a special kind of data frame: a tibble.

gapminder
#> # A tibble: 1,704 x 6
#>    country     continent  year lifeExp      pop gdpPercap
#>    <fct>       <fct>     <int>   <dbl>    <int>     <dbl>
#>  1 Afghanistan Asia       1952    28.8  8425333      779.
#>  2 Afghanistan Asia       1957    30.3  9240934      821.
#>  3 Afghanistan Asia       1962    32.0 10267083      853.
#>  4 Afghanistan Asia       1967    34.0 11537966      836.
#>  5 Afghanistan Asia       1972    36.1 13079460      740.
#>  6 Afghanistan Asia       1977    38.4 14880372      786.
#>  7 Afghanistan Asia       1982    39.9 12881816      978.
#>  8 Afghanistan Asia       1987    40.8 13867957      852.
#>  9 Afghanistan Asia       1992    41.7 16317921      649.
#> 10 Afghanistan Asia       1997    41.8 22227415      635.
#> # … with 1,694 more rows

It’s tibble-ness is why we get nice compact printing. For a reminder of the problems with base data frame printing, go type iris in the R Console or, better yet, print a data frame to screen that has lots of columns.

Note how gapminder’s class() includes tbl_df; the “tibble” terminology is a nod to this.

class(gapminder)
#> [1] "tbl_df"     "tbl"        "data.frame"

There will be some functions, like print(), that know about tibbles and do something special. There will others that do not, like summary(). In which case the regular data frame treatment will happen, because every tibble is also a regular data frame.

To turn any data frame into a tibble use as_tibble():

as_tibble(iris)
#> # A tibble: 150 x 5
#>    Sepal.Length Sepal.Width Petal.Length Petal.Width Species
#>           <dbl>       <dbl>        <dbl>       <dbl> <fct>  
#>  1          5.1         3.5          1.4         0.2 setosa 
#>  2          4.9         3            1.4         0.2 setosa 
#>  3          4.7         3.2          1.3         0.2 setosa 
#>  4          4.6         3.1          1.5         0.2 setosa 
#>  5          5           3.6          1.4         0.2 setosa 
#>  6          5.4         3.9          1.7         0.4 setosa 
#>  7          4.6         3.4          1.4         0.3 setosa 
#>  8          5           3.4          1.5         0.2 setosa 
#>  9          4.4         2.9          1.4         0.2 setosa 
#> 10          4.9         3.1          1.5         0.1 setosa 
#> # … with 140 more rows
…
#>   <fct>       <fct>     <int>   <dbl>   <int>     <dbl>
#> 1 Afghanistan Asia       1952    28.8 8425333      779.
#> 2 Rwanda      Africa     1992    23.6 7290203      737.
filter(gapminder, country == "Rwanda", year > 1979)
#> # A tibble: 6 x 6
#>   country continent  year lifeExp     pop gdpPercap
#>   <fct>   <fct>     <int>   <dbl>   <int>     <dbl>
#> 1 Rwanda  Africa     1982    46.2 5507565      882.
#> 2 Rwanda  Africa     1987    44.0 6349365      848.
#> 3 Rwanda  Africa     1992    23.6 7290203      737.
#> 4 Rwanda  Africa     1997    36.1 7212583      590.
#> 5 Rwanda  Africa     2002    43.4 7852401      786.
#> 6 Rwanda  Africa     2007    46.2 8860588      863.
filter(gapminder, country %in% c("Rwanda", "Afghanistan"))
#> # A tibble: 24 x 6
#>    country     continent  year lifeExp      pop gdpPercap
#>    <fct>       <fct>     <int>   <dbl>    <int>     <dbl>
#>  1 Afghanistan Asia       1952    28.8  8425333      779.
#>  2 Afghanistan Asia       1957    30.3  9240934      821.
#>  3 Afghanistan Asia       1962    32.0 10267083      853.
#>  4 Afghanistan Asia       1967    34.0 11537966      836.
#>  5 Afghanistan Asia       1972    36.1 13079460      740.
#>  6 Afghanistan Asia       1977    38.4 14880372      786.
#>  7 Afghanistan Asia       1982    39.9 12881816      978.
#>  8 Afghanistan Asia       1987    40.8 13867957      852.
#>  9 Afghanistan Asia       1992    41.7 16317921      649.
#> 10 Afghanistan Asia       1997    41.8 22227415      635.
#> # … with 14 more rows
…
I’ve advised you to think “gets” whenever you see the assignment operator, <-. Similarly, you should think “then” whenever you see the pipe operator, %>%.

You are probably not impressed yet, but the magic will soon happen.

6.5 Use select() to subset the data on variables or columns.

Back to dplyr….

Use select() to subset the data on variables or columns. Here’s a conventional call:

select(gapminder, year, lifeExp)
#> # A tibble: 1,704 x 2
#>     year lifeExp
#>    <int>   <dbl>
#>  1  1952    28.8
#>  2  1957    30.3
#>  3  1962    32.0
#>  4  1967    34.0
#>  5  1972    36.1
#>  6  1977    38.4
#>  7  1982    39.9
#>  8  1987    40.8
#>  9  1992    41.7
#> 10  1997    41.8
#> # … with 1,694 more rows
…
