…
Am letzten Befehl erkennt man, dass die verschiedenen logischen Ausdrücke mit einem `& ` verknüpft werden. Will man eine "oder Abfrage" gestalten, so muss diese in einem logischen Ausdruck enthalten sein. So kann man mit nachfolgendem Befehl beispielsweise nach allen Beobachtungen aus Ruanda oder Beobachachtungen nach 1979 fragen:


``` r
filter(gapminder, country == "Rwanda" | year > 1979)
## # A tibble: 858 × 6
##    country     continent  year lifeExp      pop gdpPercap
##    <fct>       <fct>     <int>   <dbl>    <int>     <dbl>
##  1 Afghanistan Asia       1982    39.9 12881816      978.
##  2 Afghanistan Asia       1987    40.8 13867957      852.
##  3 Afghanistan Asia       1992    41.7 16317921      649.
##  4 Afghanistan Asia       1997    41.8 22227415      635.
##  5 Afghanistan Asia       2002    42.1 25268405      727.
##  6 Afghanistan Asia       2007    43.8 31889923      975.
##  7 Albania     Europe     1982    70.4  2780097     3631.
##  8 Albania     Europe     1987    72    3075321     3739.
##  9 Albania     Europe     1992    71.6  3326498     2497.
## 10 Albania     Europe     1997    73.0  3428038     3193.
## # ℹ 848 more rows
```


Will man einen Vergleich mit mehr als einem Wert durchführen, so kann man natürlich alle Abfragen mit einem `|` verknüpfen, oder gleich den `%in%` Operator verwenden.


``` r
# beobachtungen aus ruanda und afghanistan
filter(gapminder, country %in% c("Rwanda", "Afghanistan"))
## # A tibble: 24 × 6
##    country     continent  year lifeExp      pop gdpPercap
##    <fct>       <fct>     <int>   <dbl>    <int>     <dbl>
##  1 Afghanistan Asia       1952    28.8  8425333      779.
##  2 Afghanistan Asia       1957    30.3  9240934      821.
##  3 Afghanistan Asia       1962    32.0 10267083      853.
##  4 Afghanistan Asia       1967    34.0 11537966      836.
##  5 Afghanistan Asia       1972    36.1 13079460      740.
##  6 Afghanistan Asia       1977    38.4 14880372      786.
##  7 Afghanistan Asia       1982    39.9 12881816      978.
##  8 Afghanistan Asia       1987    40.8 13867957      852.
##  9 Afghanistan Asia       1992    41.7 16317921      649.
## 10 Afghanistan Asia       1997    41.8 22227415      635.
## # ℹ 14 more rows
```
…
Der bisherige Einsatz des Pipe-Operators `|>` war sicherlich noch nicht sehr beeindruckend, aber das sollte sich noch ändern.


## Mit `select()` Variablen auswählen


Verwendet  `select()`, um aus den Daten verschiedene Variablen (Spalten) auszuwählen. Hier kommt eine typische Verwendung von `select()`:


``` r
select(gapminder, year, lifeExp)
## # A tibble: 1,704 × 2
##     year lifeExp
##    <int>   <dbl>
##  1  1952    28.8
##  2  1957    30.3
##  3  1962    32.0
##  4  1967    34.0
##  5  1972    36.1
##  6  1977    38.4
##  7  1982    39.9
##  8  1987    40.8
##  9  1992    41.7
## 10  1997    41.8
## # ℹ 1,694 more rows
```
…
- ...


zu arbeiten.



``` r
select(gapminder, 
       matches(        # von beginn ^
         "^.{4}$"      # bis ende $
         )             # enthält der namen irgendwelche . character
       )
## # A tibble: 1,704 × 1
##     year
##    <int>
##  1  1952
##  2  1957
##  3  1962
##  4  1967
##  5  1972
##  6  1977
##  7  1982
##  8  1987
##  9  1992
## 10  1997
## # ℹ 1,694 more rows
```
…
