…
``` r
my_gap <- gapminder
```

Unser __Ziel__ ist es, dass GDP pro Land anzugeben. Das sollte machbar sein, da schließlich das Pro-Kopf-GDP wie auch die Bevölkerungszahl im Datensatz enthalten sind. Multiplizieren beider Variablen liefert uns das gewünschte Ergebnis.

`mutate()` ist eine Funktion, die neue Variablen definiert und in ein tibble einfügt. Dabei können wir auf bestehende Variablen einfach über ihren Namen zugreifen.


``` r
my_gap |> 
  mutate(gdp = pop * gdpPercap)
## # A tibble: 1,704 × 7
##    country     continent  year lifeExp      pop gdpPercap          gdp
##    <fct>       <fct>     <int>   <dbl>    <int>     <dbl>        <dbl>
##  1 Afghanistan Asia       1952    28.8  8425333      779.  6567086330.
##  2 Afghanistan Asia       1957    30.3  9240934      821.  7585448670.
##  3 Afghanistan Asia       1962    32.0 10267083      853.  8758855797.
##  4 Afghanistan Asia       1967    34.0 11537966      836.  9648014150.
##  5 Afghanistan Asia       1972    36.1 13079460      740.  9678553274.
##  6 Afghanistan Asia       1977    38.4 14880372      786. 11697659231.
##  7 Afghanistan Asia       1982    39.9 12881816      978. 12598563401.
##  8 Afghanistan Asia       1987    40.8 13867957      852. 11820990309.
##  9 Afghanistan Asia       1992    41.7 16317921      649. 10595901589.
## 10 Afghanistan Asia       1997    41.8 22227415      635. 14121995875.
## # ℹ 1,694 more rows
```
…
Die Zahlen des relativen Pro-Kopf-GDP liegen deutlich unter 1. Wir sehen, dass die meisten Länder, die in diesem Datensatz erfasst werden, über den gesamten Zeitraum im Vergleich zu Deutschland ein wesentlich niedrigeres Pro-Kopf-GDP aufweisen.

:::: {.content-box-yellow}
__Tipp:__ Vertraut niemandem - einschließlich (besonders?) euch selbst. Versucht immer, einen Weg zu finden, um zu überprüfen, ob ihr das gemacht habt, was ihr tun wolltet. Seid aber nicht schockiert, wenn ihr manchmal feststellen müsst, dass dem nicht so ist. 😉
::::

##  Mit `arrange()` die Zeilenreihenfolge ändern

`arrange()` ordnet die Zeilen in einem data frame neu an. Stellen wir uns mal vor, dass wir die Daten nach Jahr und Land und nicht nach Land und Jahr ordnen wollen.


``` r
my_gap |> 
  arrange(year, country)
## # A tibble: 1,704 × 7
##    country     continent  year lifeExp      pop gdpPercap gdpPercapRel
##    <fct>       <fct>     <int>   <dbl>    <int>     <dbl>        <dbl>
##  1 Afghanistan Asia       1952    28.8  8425333      779.       0.109 
##  2 Albania     Europe     1952    55.2  1282697     1601.       0.224 
##  3 Algeria     Africa     1952    43.1  9279525     2449.       0.343 
##  4 Angola      Africa     1952    30.0  4232095     3521.       0.493 
##  5 Argentina   Americas   1952    62.5 17876956     5911.       0.827 
##  6 Australia   Oceania    1952    69.1  8691212    10040.       1.41  
##  7 Austria     Europe     1952    66.8  6927772     6137.       0.859 
##  8 Bahrain     Asia       1952    50.9   120447     9867.       1.38  
##  9 Bangladesh  Asia       1952    37.5 46886859      684.       0.0958
## 10 Belgium     Europe     1952    68    8730405     8343.       1.17  
## # ℹ 1,694 more rows
```

Oder vielleicht interessieren euch nur die Daten aus 2007, angeordnet entsprechend der Lebenserwartung.


``` r
my_gap |> 
  filter(year == 2007) |> 
  arrange(lifeExp)
## # A tibble: 142 × 7
##    country                 continent  year lifeExp    pop gdpPercap gdpPercapRel
##    <fct>                   <fct>     <int>   <dbl>  <int>     <dbl>        <dbl>
##  1 Swaziland               Africa     2007    39.6 1.13e6     4513.       0.140 
##  2 Mozambique              Africa     2007    42.1 2.00e7      824.       0.0256
##  3 Zambia                  Africa     2007    42.4 1.17e7     1271.       0.0395
##  4 Sierra Leone            Africa     2007    42.6 6.14e6      863.       0.0268
##  5 Lesotho                 Africa     2007    42.6 2.01e6     1569.       0.0488
##  6 Angola                  Africa     2007    42.7 1.24e7     4797.       0.149 
##  7 Zimbabwe                Africa     2007    43.5 1.23e7      470.       0.0146
##  8 Afghanistan             Asia       2007    43.8 3.19e7      975.       0.0303
##  9 Central African Republ… Africa     2007    44.7 4.37e6      706.       0.0219
## 10 Liberia                 Africa     2007    45.7 3.19e6      415.       0.0129
## # ℹ 132 more rows
```

Das war nun aber nicht das Ergebnis, welches ihr sehen wolltet. Ihr wolltet eigentlich nach absteigender Lebenserwartung sortieren. Dazu müsst ihr  `desc()` verwenden.


``` r
my_gap |> 
  filter(year == 2007) |> 
  arrange(desc(lifeExp))
## # A tibble: 142 × 7
##    country          continent  year lifeExp       pop gdpPercap gdpPercapRel
##    <fct>            <fct>     <int>   <dbl>     <int>     <dbl>        <dbl>
##  1 Japan            Asia       2007    82.6 127467972    31656.        0.984
##  2 Hong Kong, China Asia       2007    82.2   6980412    39725.        1.23 
##  3 Iceland          Europe     2007    81.8    301931    36181.        1.12 
##  4 Switzerland      Europe     2007    81.7   7554661    37506.        1.17 
##  5 Australia        Oceania    2007    81.2  20434176    34435.        1.07 
##  6 Spain            Europe     2007    80.9  40448191    28821.        0.896
##  7 Sweden           Europe     2007    80.9   9031088    33860.        1.05 
##  8 Israel           Asia       2007    80.7   6426679    25523.        0.793
##  9 France           Europe     2007    80.7  61083916    30470.        0.947
## 10 Canada           Americas   2007    80.7  33390141    36319.        1.13 
## # ℹ 132 more rows
```
:::: {.content-box-yellow}
__Tipp:__ Verlasst euch  NIEMALS darauf, dass Zeilen oder Variablen in einer bestimmten Reihenfolge stehen. Aber manchmal will man Tabellen anderen präsentieren und dabei macht es durchaus Sinn die  Zeilenreihenfolge je nach Fragestellung anzupassen.
::::

## Mit `rename()` "schöne" Namen vergeben

Ein paar der Namen in `gapminder` sind nicht besonders hübsch, wie z.B. `lifeExp`. life expectancy wären ja schließlich zwei Worte und daher finde ich (persönliche Meinung) es schöner, dies auch im Variablennamen zu sehen


``` r
my_gap |> 
  rename(life_exp = lifeExp,
         gdp_percap = gdpPercap,
         gdp_percap_rel = gdpPercapRel)
## # A tibble: 1,704 × 7
##    country     continent  year life_exp      pop gdp_percap gdp_percap_rel
##    <fct>       <fct>     <int>    <dbl>    <int>      <dbl>          <dbl>
##  1 Afghanistan Asia       1952     28.8  8425333       779.         0.109 
##  2 Afghanistan Asia       1957     30.3  9240934       821.         0.0806
##  3 Afghanistan Asia       1962     32.0 10267083       853.         0.0661
##  4 Afghanistan Asia       1967     34.0 11537966       836.         0.0567
##  5 Afghanistan Asia       1972     36.1 13079460       740.         0.0411
##  6 Afghanistan Asia       1977     38.4 14880372       786.         0.0383
##  7 Afghanistan Asia       1982     39.9 12881816       978.         0.0444
##  8 Afghanistan Asia       1987     40.8 13867957       852.         0.0346
##  9 Afghanistan Asia       1992     41.7 16317921       649.         0.0245
## 10 Afghanistan Asia       1997     41.8 22227415       635.         0.0229
## # ℹ 1,694 more rows
```
…
Manchmal möchte man die $n$-Zeilen für jede Gruppe nicht zu einer Zeile zusammenfassen. Stattdessen möchte man die Gruppen behalten, aber innerhalb dieser Gruppen rechnen.

### Berechnungen innerhalb der Gruppen

Lasst uns eine neue Variable definieren, die die gewonnenen (verlorenen) Lebenserwartungsjahre im Vergleich zu 1952 für jedes einzelne Land angibt. Wir gruppieren nach Ländern und verwenden `mutate()`, um eine neue Variable zu erstellen. Die Funktion `first()` extrahiert dabei den ersten Wert aus einem Vektor. Beachtet, dass `first()` mit dem Vektor der Lebenserwartungen *in jeder Ländergruppe* arbeitet.


``` r
my_gap |> 
  group_by(country) |> 
  select(country, year, lifeExp) |> 
  mutate(lifeExp_gain = lifeExp - first(lifeExp)) |> 
  filter(year < 1963)
## # A tibble: 426 × 4
## # Groups:   country [142]
##    country      year lifeExp lifeExp_gain
##    <fct>       <int>   <dbl>        <dbl>
##  1 Afghanistan  1952    28.8         0   
##  2 Afghanistan  1957    30.3         1.53
##  3 Afghanistan  1962    32.0         3.20
##  4 Albania      1952    55.2         0   
##  5 Albania      1957    59.3         4.05
##  6 Albania      1962    64.8         9.59
##  7 Algeria      1952    43.1         0   
##  8 Algeria      1957    45.7         2.61
##  9 Algeria      1962    48.3         5.23
## 10 Angola       1952    30.0         0   
## # ℹ 416 more rows
```
…
Wir sehen, dass (min = Afghanistan, max = Japan) das häufigste Ergebnis ist, aber Kambodscha und Israel tauchen auch jeweils mindestens einmal als min bzw. max auf. 


> Aber wäre es nicht schön eine Zeile pro Jahr zu haben?

Zuerst sollten wir uns aber vielleicht nochmal fragen wie das eigentlich funktioniert hat? Dazu schauen wir uns die Beobachtungen aus Asien mal direkt an.


``` r
(asia <- my_gap |>
  filter(continent == "Asia") |>
  select(year, country, lifeExp) |>
  group_by(year))
## # A tibble: 396 × 3
## # Groups:   year [12]
##     year country     lifeExp
##    <int> <fct>         <dbl>
##  1  1952 Afghanistan    28.8
##  2  1957 Afghanistan    30.3
##  3  1962 Afghanistan    32.0
##  4  1967 Afghanistan    34.0
##  5  1972 Afghanistan    36.1
##  6  1977 Afghanistan    38.4
##  7  1982 Afghanistan    39.9
##  8  1987 Afghanistan    40.8
##  9  1992 Afghanistan    41.7
## 10  1997 Afghanistan    41.8
## # ℹ 386 more rows
```
…
