…
Wir betrachten dazu als Beispiel das Ziehen aus einer Urne, wobei die Kugeln in der Urne eben die Population darstellen, die uns interessiert. Da wir die Stichprobe digital erzeugen wollen, genauer gesagt mit R, müssen wir uns nach einer digitalen Urne umschauen.

Eine solche findet man im Paket `moderndive`. Die Autoren des Pakets haben auch gemeinsam das Buch [@ismay_kim2019] geschrieben. Das Buch ist Grundlagen für diesen Abschnitt. Wer am Ende also noch mehr zu diesem Thema lesen will, sei an das Buch verwiesen.

Nun aber zurück zur digitalen Urne


```r
library(moderndive)
bowl
```

```
## # A tibble: 2,400 × 2
##    ball_ID color
##      <int> <chr>
##  1       1 white
##  2       2 white
##  3       3 white
##  4       4 red  
##  5       5 white
##  6       6 white
##  7       7 red  
##  8       8 white
##  9       9 red  
## 10      10 white
## # … with 2,390 more rows
```
…
```r
B <- 1000
x_B <- x %>%
  rep_sample_n(size = 100, replace = TRUE, reps = B) 

x_B
```

```
## # A tibble: 100,000 × 3
## # Groups:   replicate [1,000]
##    replicate ball_ID color
##        <int>   <int> <chr>
##  1         1    2260 white
##  2         1     983 white
##  3         1    1599 white
##  4         1    2082 white
##  5         1     619 red  
##  6         1     665 white
##  7         1    1501 white
##  8         1    1029 white
##  9         1     316 white
## 10         1     165 white
## # … with 99,990 more rows
```

Für jede dieser $B$ Stichprobenwiederholungen berechnen wir nun das empirische Mittel


$$\overline x_n^b = \frac{1}{n}\sum_{i=1}^n x_i^b\,,\qquad b=1, \dots, B$$


```r
mean_x_B <- x_B %>%
  summarise(prop = mean(color == "red"))
mean_x_B
```

```
## # A tibble: 1,000 × 2
##    replicate  prop
##        <int> <dbl>
##  1         1  0.32
##  2         2  0.37
##  3         3  0.39
##  4         4  0.34
##  5         5  0.37
##  6         6  0.4 
##  7         7  0.37
##  8         8  0.32
##  9         9  0.31
## 10        10  0.31
## # … with 990 more rows
```
…
