Kapitel 5 Letzte Vorbereitungen … | R4ews MA0009
…
str() liefert eine vernünftige Beschreibung von fast allem, und im schlimmsten Fall kann tatsächlich auch nichts “Schlimmes” passieren. Aus dem Output erkennen wir, dass der Datensatz 1704 Beobachtungen enthält.

Auf der anderen Seite hätten wir durch direkten Aufruf von gapminder den Inhalt auch direkt auf den Bildschirm schreiben können. Aber vielleicht habt ihr schon mal einen größeren Datensatz aufgerufen und zögert nun etwas, da große Datensätze tendenziell einfach die Konsole füllen und nur sehr wenig Einblick bieten.

Tidyverse bietet eine spezielle data frame Variante an: ein tibble. gapminder ist ein tibble. Das sieht man auch, wenn man sich die Klasse dieses Objekts anzeigen lässt

class(gapminder)
## [1] "tbl_df"     "tbl"        "data.frame"

Es ist immer noch ein reguläres data frame, aber zusätzlich eben auch ein tibble.

Wenn wir nun gapminder einfach auf den Bildschirm ausgeben, sehen wir, dass die Konsole nicht voll läuft.

gapminder
## # A tibble: 1,704 × 6
##    country     continent  year lifeExp      pop gdpPercap
##    <fct>       <fct>     <int>   <dbl>    <int>     <dbl>
##  1 Afghanistan Asia       1952    28.8  8425333      779.
##  2 Afghanistan Asia       1957    30.3  9240934      821.
##  3 Afghanistan Asia       1962    32.0 10267083      853.
##  4 Afghanistan Asia       1967    34.0 11537966      836.
##  5 Afghanistan Asia       1972    36.1 13079460      740.
##  6 Afghanistan Asia       1977    38.4 14880372      786.
##  7 Afghanistan Asia       1982    39.9 12881816      978.
##  8 Afghanistan Asia       1987    40.8 13867957      852.
##  9 Afghanistan Asia       1992    41.7 16317921      649.
## 10 Afghanistan Asia       1997    41.8 22227415      635.
## # ℹ 1,694 more rows

Dies ist der erste große Vorteil eines tibbles gegenüber einem data frame.

Wenn ihr mit einem reinen data frame arbeitet - und dieses Feature gefällt euch - so könnt ihr es mit as_tibble() in ein tibble transformieren.

library(tidyverse)
as_tibble(iris)
## # A tibble: 150 × 5
##    Sepal.Length Sepal.Width Petal.Length Petal.Width Species
##           <dbl>       <dbl>        <dbl>       <dbl> <fct>  
##  1          5.1         3.5          1.4         0.2 setosa 
##  2          4.9         3            1.4         0.2 setosa 
##  3          4.7         3.2          1.3         0.2 setosa 
##  4          4.6         3.1          1.5         0.2 setosa 
##  5          5           3.6          1.4         0.2 setosa 
##  6          5.4         3.9          1.7         0.4 setosa 
##  7          4.6         3.4          1.4         0.3 setosa 
##  8          5           3.4          1.5         0.2 setosa 
##  9          4.4         2.9          1.4         0.2 setosa 
## 10          4.9         3.1          1.5         0.1 setosa 
## # ℹ 140 more rows
…
