Kapitel 6 Einführung in dplyr | R4ews MA0009
…
#>   <fct>       <fct>     <int>   <dbl>   <int>     <dbl>
#> 1 Afghanistan Asia       1952    28.8 8425333      779.
#> 2 Rwanda      Africa     1992    23.6 7290203      737.
filter(gapminder, country == "Rwanda", year > 1979)
#> # A tibble: 6 x 6
#>   country continent  year lifeExp     pop gdpPercap
#>   <fct>   <fct>     <int>   <dbl>   <int>     <dbl>
#> 1 Rwanda  Africa     1982    46.2 5507565      882.
#> 2 Rwanda  Africa     1987    44.0 6349365      848.
#> 3 Rwanda  Africa     1992    23.6 7290203      737.
#> 4 Rwanda  Africa     1997    36.1 7212583      590.
#> 5 Rwanda  Africa     2002    43.4 7852401      786.
#> 6 Rwanda  Africa     2007    46.2 8860588      863.
filter(gapminder, country %in% c("Rwanda", "Afghanistan"))
#> # A tibble: 24 x 6
#>    country     continent  year lifeExp      pop gdpPercap
#>    <fct>       <fct>     <int>   <dbl>    <int>     <dbl>
#>  1 Afghanistan Asia       1952    28.8  8425333      779.
#>  2 Afghanistan Asia       1957    30.3  9240934      821.
#>  3 Afghanistan Asia       1962    32.0 10267083      853.
#>  4 Afghanistan Asia       1967    34.0 11537966      836.
#>  5 Afghanistan Asia       1972    36.1 13079460      740.
#>  6 Afghanistan Asia       1977    38.4 14880372      786.
#>  7 Afghanistan Asia       1982    39.9 12881816      978.
#>  8 Afghanistan Asia       1987    40.8 13867957      852.
#>  9 Afghanistan Asia       1992    41.7 16317921      649.
#> 10 Afghanistan Asia       1997    41.8 22227415      635.
#> # … with 14 more rows
…
Du bist wahrscheinlich noch nicht sehr beeindruckt, aber das sollte sich noch ändern.

6.4 Mit select() Variablen auswählen

Nun zurück zu dplyr….

Verwende select(), um aus den Daten verschiedene Variablen (Spalten) auszuwählen. Hier kommt eine typische Verwendung von select():

select(gapminder, year, lifeExp)
#> # A tibble: 1,704 x 2
#>     year lifeExp
#>    <int>   <dbl>
#>  1  1952    28.8
#>  2  1957    30.3
#>  3  1962    32.0
#>  4  1967    34.0
#>  5  1972    36.1
#>  6  1977    38.4
#>  7  1982    39.9
#>  8  1987    40.8
#>  9  1992    41.7
#> 10  1997    41.8
#> # … with 1,694 more rows
…
