Kapitel 8 Daten I/O | R4ews MA0009
…
Fazit: Benutze readr::read_delim() und “Freunde”.

Die Gapminder-Daten sind zu sauber und einfach, um die großartigen Funktionen von readr zur Geltung zu bringen. Ein Blick in Introduction to readr zeigt aber noch viele weitere Anpassungsmöglichkeiten der readr Funktionen.

8.5 Daten exportieren

Bevor wir etwas exportieren können, müssen (das ist natürlich so nicht richtig - niemand zwingt uns dazu) etwas berechnen, das es wert ist, exportiert zu werden. Lass uns eine Zusammenfassung der maximalen Lebenserwartung auf Länderebene erstellen.

gap_life_exp <- gapminder %>%
  group_by(country, continent) %>% 
  summarise(life_exp = max(lifeExp)) %>% 
  ungroup()
#> `summarise()` regrouping output by 'country' (override with `.groups` argument)
gap_life_exp
#> # A tibble: 142 x 3
#>    country     continent life_exp
#>    <chr>       <chr>        <dbl>
#>  1 Afghanistan Asia          43.8
#>  2 Albania     Europe        76.4
#>  3 Algeria     Africa        72.3
#>  4 Angola      Africa        42.7
#>  5 Argentina   Americas      75.3
#>  6 Australia   Oceania       81.2
#>  7 Austria     Europe        79.8
#>  8 Bahrain     Asia          75.6
#>  9 Bangladesh  Asia          64.1
#> 10 Belgium     Europe        79.4
#> # … with 132 more rows
…
