Kapitel 13 Sampling | R4ews MA0009
…
Im Statistikteil der Veranstaltung gehen wir fast immer davon aus, dass eine Stichprobe aus
einem statistischen Modell vorliegt. Daher wollen wir hier ein bisschen darüber sprechen, was
es heißt eine Stichprobe aus einer Grundgesamtheit/Population zu ziehen.

Wir betrachten dazu als Beispiel das Ziehen aus einer Urne, wobei die Kugeln in der Urne eben die Population darstellen, die uns interessiert. Da wir die Stichprobe digital erzeugen wollen, genauer gesagt mit R, müssen wir uns nach einer digitalen Urne umschauen.

Eine solche findet man im Paket moderndive. Die Autoren des Pakets haben auch gemeinsam das Buch (Ismay and Kim 2019) geschrieben. Das Buch ist Grundlagen für diesen Abschnitt. Wer am Ende also noch mehr zu diesem Thema lesen will, sei an das Buch verwiesen.

Nun aber zurück zur digitalen Urne

library(moderndive)
bowl

## # A tibble: 2,400 × 2
##    ball_ID color
##      <int> <chr>
##  1       1 white
##  2       2 white
##  3       3 white
##  4       4 red  
##  5       5 white
##  6       6 white
##  7       7 red  
##  8       8 white
##  9       9 red  
## 10      10 white
## # … with 2,390 more rows
…
Unser Ziel ist es nun, basierend auf diesen 100 Beobachtungen, die Verteilung von \(\overline X_n\) zu approximieren. Dazu benötigen wir sicherlich mehrere berechnete Werte des empirischen Mittels. Natürlich könnten wir die ursprüngliche Stichprobe in 50 Paare zerlege und so 50 empirische Mittelwerte \(\overline x_2^1,\dots,\overline x_2^{50}\) berechnen. Damit könnten wir dann aber nur die Verteilung von \(\overline X_2\) approximieren und nicht von \(\overline X_{100}\). D.h. wir wollen mehrere empirische Mittelwerte basierend auf 100 Inputwerten berechnen.

Dieses Ziel werden wir nur erreichen, wenn wir die ursprünglichen 100 Werte \(x_1,\dots, x_n\) in “schlauer” Form mehrfach nutzen. Wir stellen uns auf den Standpunkt, dass die 100 Werte Realisierungen von unabhängigen und identisch verteilten Zufallsvariablen sind. Das ist auch die Annahme in unserem statistischen Modell.
Unsere Stichprobe ist somit eine gute Approximation der Gesamtpopulation - auf jeden Fall die beste, die wir haben - und daher würde es Sinn machen wiederholt aus dieser Näherung zu ziehen und dabei die Aufteilung in rote und weiße Kugeln nicht zu verändern. Wir ziehen somit mit Zurücklegen und erzeugen so \(B\) Stichprobenwiederholungen

\[x_1^b,\dots,x_n^b,\qquad b = 1,\dots, B\,,\]
wobei \(x_i^b\in\{x_1,\dots, x_n\}\).

B <- 1000
x_B <- x %>%
  rep_sample_n(size = 100, replace = TRUE, reps = B) 

x_B

## # A tibble: 100,000 × 3
## # Groups:   replicate [1,000]
##    replicate ball_ID color
##        <int>   <int> <chr>
##  1         1    2260 white
##  2         1     983 white
##  3         1    1599 white
##  4         1    2082 white
##  5         1     619 red  
##  6         1     665 white
##  7         1    1501 white
##  8         1    1029 white
##  9         1     316 white
## 10         1     165 white
## # … with 99,990 more rows

Für jede dieser \(B\) Stichprobenwiederholungen berechnen wir nun das empirische Mittel

\[\overline x_n^b = \frac{1}{n}\sum_{i=1}^n x_i^b\,,\qquad b=1, \dots, B\]

mean_x_B <- x_B %>%
  summarise(prop = mean(color == "red"))
mean_x_B

## # A tibble: 1,000 × 2
##    replicate  prop
##        <int> <dbl>
##  1         1  0.32
##  2         2  0.37
##  3         3  0.39
##  4         4  0.34
##  5         5  0.37
##  6         6  0.4 
##  7         7  0.37
##  8         8  0.32
##  9         9  0.31
## 10        10  0.31
## # … with 990 more rows
…
